{
"containerDefinitions": [
  {
    "name": "document_similarity",
    "image": "409726098618.dkr.ecr.eu-west-2.amazonaws.com/document_similarity:latest",
    "essential": true,
    "portMappings": [
    {
    "containerPort": 5012,
    "hostPort": 92
    }
    ],
    "memoryReservation":250,
    "logConfiguration": {
               "logDriver": "awslogs",
               "options": {
                   "awslogs-group": "awslogs-document_similarity",
                   "awslogs-region": "us-east-1",
                   "awslogs-stream-prefix": "document_similarity"
               }
           }
    }
],
"family": "document_similarity"
}
